<svg width="14" height="25" viewBox="0 0 14 25" fill="none" xmlns="http://www.w3.org/2000/svg">
<path d="M12.0083 0.332852L0.341678 11.6968C0.12289 11.9098 9.43029e-07 12.1989 9.20829e-07 12.5003C8.98622e-07 12.8017 0.122967 13.0907 0.341756 13.3038L12.0084 24.6672C12.464 25.1109 13.2027 25.1109 13.6583 24.6672C14.1139 24.2234 14.1139 23.5039 13.6583 23.0601L2.81664 12.5003L13.6583 1.9399C13.8861 1.718 14 1.42717 14 1.13634C14 0.845502 13.8861 0.554669 13.6582 0.332774C13.2026 -0.110936 12.464 -0.110934 12.0083 0.332852Z" fill="#635B68"/>
</svg>
