<svg width="57" height="23" viewBox="0 0 57 23" fill="none" xmlns="http://www.w3.org/2000/svg">
<path d="M0 16.602V22.202H0.944V16.602H0ZM0.56 17.434H1.688C2.01333 17.434 2.27467 17.5114 2.472 17.666C2.66933 17.8154 2.768 18.0394 2.768 18.338C2.768 18.6367 2.66933 18.8634 2.472 19.018C2.27467 19.1727 2.01333 19.25 1.688 19.25H0.56V20.082H1.688C2.09333 20.082 2.44533 20.0127 2.744 19.874C3.048 19.73 3.28267 19.5274 3.448 19.266C3.61333 19.0047 3.696 18.6954 3.696 18.338C3.696 17.9807 3.61333 17.674 3.448 17.418C3.28267 17.1567 3.048 16.9567 2.744 16.818C2.44533 16.674 2.09333 16.602 1.688 16.602H0.56V17.434Z" fill="#5855FF"/>
<path d="M5.777 19.53L7.561 22.202H8.697L6.801 19.53H5.777ZM4.625 16.602V22.202H5.569V16.602H4.625ZM5.185 17.418H6.313C6.52633 17.418 6.713 17.4554 6.873 17.53C7.03833 17.6047 7.16633 17.7114 7.257 17.85C7.34767 17.9887 7.393 18.1594 7.393 18.362C7.393 18.5594 7.34767 18.73 7.257 18.874C7.16633 19.0127 7.03833 19.1194 6.873 19.194C6.713 19.2687 6.52633 19.306 6.313 19.306H5.185V20.082H6.353C6.75833 20.082 7.11033 20.01 7.409 19.866C7.713 19.722 7.94767 19.5194 8.113 19.258C8.27833 18.9967 8.361 18.69 8.361 18.338C8.361 17.986 8.27833 17.682 8.113 17.426C7.94767 17.1647 7.713 16.962 7.409 16.818C7.11033 16.674 6.75833 16.602 6.353 16.602H5.185V17.418Z" fill="#5855FF"/>
<path d="M9.38281 16.602V22.202H10.3348V16.602H9.38281Z" fill="#5855FF"/>
<path d="M13.7219 20.538L12.0739 16.602H10.9859L13.7219 22.514L16.4579 16.602H15.3699L13.7219 20.538Z" fill="#5855FF"/>
<path d="M16.9845 20.762H19.9445L19.7605 19.962H17.1605L16.9845 20.762ZM18.4485 18.186L19.3365 20.266L19.3605 20.498L20.1205 22.202H21.1845L18.4485 16.29L15.7125 22.202H16.7765L17.5525 20.45L17.5685 20.242L18.4485 18.186Z" fill="#5855FF"/>
<path d="M20.7134 17.474H22.1854V22.202H23.1374V17.474H24.6174V16.602H20.7134V17.474Z" fill="#5855FF"/>
<path d="M25.8887 22.202H28.7127V21.37H25.8887V22.202ZM25.8887 17.434H28.7127V16.602H25.8887V17.434ZM25.8887 19.61H28.5527V18.794H25.8887V19.61ZM25.3047 16.602V22.202H26.2327V16.602H25.3047Z" fill="#5855FF"/>
<path d="M32.8574 22.202H35.6814V21.37H32.8574V22.202ZM32.8574 17.434H35.6814V16.602H32.8574V17.434ZM32.8574 19.61H35.5214V18.794H32.8574V19.61ZM32.2734 16.602V22.202H33.2014V16.602H32.2734Z" fill="#5855FF"/>
<path d="M38.9798 20.538L37.3317 16.602H36.2437L38.9798 22.514L41.7158 16.602H40.6278L38.9798 20.538Z" fill="#5855FF"/>
<path d="M42.9512 22.202H45.7752V21.37H42.9512V22.202ZM42.9512 17.434H45.7752V16.602H42.9512V17.434ZM42.9512 19.61H45.6152V18.794H42.9512V19.61ZM42.3672 16.602V22.202H43.2952V16.602H42.3672Z" fill="#5855FF"/>
<path d="M51.0255 16.602V20.362L46.9375 16.322V22.202H47.8655V18.442L51.9535 22.482V16.602H51.0255Z" fill="#5855FF"/>
<path d="M52.6353 17.474H54.1073V22.202H55.0593V17.474H56.5393V16.602H52.6353V17.474Z" fill="#5855FF"/>
<path d="M39.6824 4.24883C40.289 3.8376 40.7658 1.45264 40.0631 0C38.7517 1.37329 36.1516 2.43452 33.1295 3.56064C29.9725 4.73633 29.6368 5.60454 28.5 5.61982C27.3625 5.60454 27.0275 4.73633 23.8705 3.56064C20.8484 2.43452 18.2483 1.37329 16.9369 0C16.2334 1.45264 16.711 3.8376 17.3168 4.24883C16.6584 3.93833 16 3.7293 16 3.7293C16 3.7293 16.1862 7.05801 17.6235 8.93257C18.8419 10.5218 21.8708 12.4924 24.744 11.805C27.7821 11.0787 27.7882 9.78325 28.5 9.79009C29.2111 9.7832 29.2172 11.0787 32.2552 11.805C35.1284 12.4924 38.1573 10.5218 39.3765 8.93257C40.8123 7.05801 41 3.7293 41 3.7293C41 3.7293 40.3408 3.93833 39.6824 4.24883ZM22.4179 9.04165C21.1918 8.47324 20.1687 7.2144 20.3091 5.43369C20.9347 5.68164 22.694 5.89297 23.6828 6.27749C24.8059 6.71465 25.9304 7.44858 26.0716 8.29165C26.025 8.99434 24.3374 9.9312 22.4179 9.04165ZM34.5822 9.04165C32.6611 9.93125 30.975 8.99434 30.9285 8.2917C31.0696 7.44863 32.1927 6.7147 33.3172 6.27754C34.306 5.89302 36.0653 5.68169 36.691 5.43374C36.8313 7.2144 35.8074 8.47324 34.5822 9.04165Z" fill="url(#paint0_linear_1590_9686)"/>
<defs>
<linearGradient id="paint0_linear_1590_9686" x1="28.5" y1="0" x2="28.5" y2="11.9458" gradientUnits="userSpaceOnUse">
<stop stop-color="#5855FF"/>
<stop offset="1" stop-color="#391BEF"/>
</linearGradient>
</defs>
</svg>
