<svg width="14" height="15" viewBox="0 0 14 15" fill="none" xmlns="http://www.w3.org/2000/svg">
<g clip-path="url(#clip0_876_7025)">
<path d="M7.52246 4.41797V7.67933H11.3274" stroke="#5855FF" stroke-linecap="round" stroke-linejoin="round"/>
<path d="M7.52252 13.1144C10.5245 13.1144 12.9581 10.6808 12.9581 7.67877C12.9581 4.67677 10.5245 2.24316 7.52252 2.24316C4.52052 2.24316 2.08691 4.67677 2.08691 7.67877C2.08691 10.6808 4.52052 13.1144 7.52252 13.1144Z" stroke="#5855FF" stroke-miterlimit="10"/>
<path d="M11.8711 1.15625L14.0453 2.78693" stroke="#5855FF" stroke-linecap="round" stroke-linejoin="round"/>
<path d="M1 2.78693L3.17424 1.15625" stroke="#5855FF" stroke-linecap="round" stroke-linejoin="round"/>
</g>
<defs>
<clipPath id="clip0_876_7025">
<rect width="14" height="14" fill="white" transform="translate(0 0.5)"/>
</clipPath>
</defs>
</svg>
