<svg width="15" height="15" viewBox="0 0 15 15" fill="none" xmlns="http://www.w3.org/2000/svg">
<path d="M7.50004 9.5279C7.9896 9.5279 8.38647 9.36306 8.38647 9.15972C8.38647 8.95639 7.9896 8.79155 7.50004 8.79155C7.01048 8.79155 6.61361 8.95639 6.61361 9.15972C6.61361 9.36306 7.01048 9.5279 7.50004 9.5279Z" fill="white"/>
<path d="M14.1515 6.35153C14.0757 5.56671 13.9079 4.61498 13.6138 3.94291C13.5413 3.77969 11.8271 0 7.49984 0C6.37957 0 5.43874 0.250386 4.65562 0.624282C3.33618 1.14222 2.31955 2.10068 1.68963 3.40343C1.50891 3.71103 1.41693 3.92238 1.40235 3.95771C1.11476 4.61296 0.949584 5.55157 0.87218 6.33234C0.344273 6.74831 0 7.42711 0 8.19207C0 9.24847 0.655835 10.1396 1.54518 10.4031C2.67192 12.6879 4.96524 14.1667 7.5115 14.1667C10.0594 14.1667 12.355 12.6849 13.4817 10.3954C14.3574 10.1221 15 9.23803 15 8.19207C14.999 7.43889 14.6658 6.76884 14.1515 6.35153ZM12.9091 9.13673C12.8068 9.13673 12.709 9.11183 12.6189 9.06976C11.8967 11.2502 9.88546 12.8208 7.51117 12.8208C5.13462 12.8208 3.12048 11.2462 2.40084 9.0627C2.30498 9.11015 2.20069 9.13707 2.09058 9.13707C1.64979 9.13673 1.29548 8.7137 1.29548 8.19207C1.29548 7.67076 1.64979 7.24807 2.09058 7.24807C2.09867 7.24807 2.10645 7.25043 2.11487 7.25076C2.11713 6.96066 2.14207 6.60191 2.18676 6.23239C2.24992 6.23542 2.31275 6.24013 2.3772 6.24013C3.49682 6.24013 4.75958 5.77066 5.86138 4.94883C6.42848 5.43883 7.21937 5.98066 7.94354 5.98066H8.1466L8.10094 5.77503C8.0977 5.76191 7.85642 4.65099 7.80201 3.66089C8.14499 4.0893 8.53752 4.47935 8.9728 4.82363C10.1138 5.72556 11.4449 6.24249 12.6238 6.24249C12.696 6.24249 12.7656 6.23778 12.8349 6.23407C12.8793 6.60259 12.9039 6.95898 12.9065 7.24841L12.9091 7.24807C13.3499 7.24807 13.7039 7.67076 13.7039 8.19207C13.7036 8.7137 13.3502 9.13673 12.9091 9.13673Z" fill="white"/>
<path d="M5.09146 7.71328C5.5236 7.71328 5.87393 7.34925 5.87393 6.9002C5.87393 6.45115 5.5236 6.08712 5.09146 6.08712C4.65931 6.08712 4.30899 6.45115 4.30899 6.9002C4.30899 7.34925 4.65931 7.71328 5.09146 7.71328Z" fill="white"/>
<path d="M9.90785 7.71328C10.34 7.71328 10.6903 7.34925 10.6903 6.9002C10.6903 6.45115 10.34 6.08712 9.90785 6.08712C9.4757 6.08712 9.12538 6.45115 9.12538 6.9002C9.12538 7.34925 9.4757 7.71328 9.90785 7.71328Z" fill="white"/>
</svg>
